[gd_scene load_steps=3 format=2]

[ext_resource path="res://Assets/Weapon Assets/Guns.png" type="Texture" id=1]

[sub_resource type="RectangleShape2D" id=1]
extents = Vector2( 14.3971, 9.28505 )

[node name="pistol" type="Area2D" groups=[
"pistol",
]]
scale = Vector2( 2, 2 )
collision_layer = 7
collision_mask = 7

[node name="Sprite" type="Sprite" parent="."]
position = Vector2( 4, 0 )
texture = ExtResource( 1 )
vframes = 2
hframes = 2

[node name="CollisionShape2D" type="CollisionShape2D" parent="."]
shape = SubResource( 1 )
