[gd_scene load_steps=3 format=2]

[ext_resource path="res://Assets/Weapon Assets/Guns.png" type="Texture" id=1]

[sub_resource type="RectangleShape2D" id=1]
extents = Vector2( 18.13, 13.1219 )

[node name="Shot Gun" type="Area2D" groups=[
"S_gun",
]]
scale = Vector2( 2, 2 )

[node name="Sprite" type="Sprite" parent="."]
texture = ExtResource( 1 )
vframes = 2
hframes = 2
frame = 2

[node name="CollisionShape2D" type="CollisionShape2D" parent="."]
shape = SubResource( 1 )
